Z:\MP3s\Songs\Macklemore - Thriftshop (Remix).mp3 , rock
Z:\MP3s\Songs\Spin Doctors - Two Princes.mp3 , pop , rock
Z:\MP3s\Songs\Klassisch\Edvard Grieg - Peer Gynt Suite 1.mp3 , pu
Z:\MP3s\Songs\Vocal Metal;Rock\The Last Goodnight - Incomplete.mp3 , none
Z:\MP3s\Songs\Vocal Metal;Rock\Red - Breathe Into Me.mp3 , none
Z:\MP3s\Songs\Vocal Metal;Rock\Breaking Benjamin - Dance With The Devil.mp3 , none
